{
  "content": [
    {
      "portfId": "F0000001",
      "apiId": "A-7fdc169e-e2b3-45f7-8b90-2141115b7f5a",
      "verOrd": "154",
      "verNm": "v1.0.0",
      "apiNm": "적금 거래내역2",
      "apiDomain": "https://tapi.codef.io",
      "apiUri": "/v1/kr/bank/p/installment-savings/transaction-list",
      "apiMeth": "POST",
      "apiDesc": "",
      "apiGrpId": 0,
      "apiAuthCheck": "00000000",
      "descUseYn": "Y",
      "reqStep": "1",
      "timeout": "30000",
      "useYn": "Y",
      "regDtm": "2023-02-13T13:21:54",
      "modDtm": "2023-02-13T13:21:54"
    },
    {
      "portfId": "F0000001",
      "apiId": "A-dc8c4126-2656-4453-9d56-ef19e07e813d",
      "verOrd": "153",
      "verNm": "v1.0.0",
      "apiNm": "수시입출 과거 거래내역",
      "apiDomain": "https://tapi.codef.io",
      "apiUri": "/v1/kr/bank/p/account/past-transaction-list",
      "apiMeth": "POST",
      "apiDesc": "",
      "apiGrpId": 0,
      "apiAuthCheck": "00000000",
      "descUseYn": "Y",
      "reqStep": "1",
      "timeout": "30000",
      "useYn": "Y",
      "regDtm": "2023-02-13T13:21:54",
      "modDtm": "2023-02-13T13:21:54"
    },
    {
      "portfId": "F0000001",
      "apiId": "A-16bb84d2-c80b-45c0-83e7-3d1a17849a84",
      "verOrd": "152",
      "verNm": "v1.0.0",
      "apiNm": "수시입출 거래내역2",
      "apiDomain": "https://tapi.codef.io",
      "apiUri": "/v1/kr/bank/p/account/transaction-list",
      "apiMeth": "POST",
      "apiDesc": "",
      "apiGrpId": 0,
      "apiAuthCheck": "00000000",
      "descUseYn": "Y",
      "reqStep": "1",
      "timeout": "30000",
      "useYn": "Y",
      "regDtm": "2023-02-13T13:21:54",
      "modDtm": "2023-02-13T13:21:54"
    },
    {
      "portfId": "F0000001",
      "apiId": "A-9eb8ed59-81c2-4a70-9df6-dd0b9739be0a",
      "verOrd": "151",
      "verNm": "v1.0.0",
      "apiNm": "빠른조회",
      "apiDomain": "https://tapi.codef.io",
      "apiUri": "/v1/kr/bank/p/fast-account/transaction-list",
      "apiMeth": "POST",
      "apiDesc": "",
      "apiGrpId": 0,
      "apiAuthCheck": "00000000",
      "descUseYn": "Y",
      "reqStep": "1",
      "timeout": "30000",
      "useYn": "Y",
      "regDtm": "2023-02-13T13:21:54",
      "modDtm": "2023-02-13T13:21:54"
    },
    {
      "portfId": "F0000001",
      "apiId": "A-d13ba33a-c097-4ee8-861f-71df95288d38",
      "verOrd": "150",
      "verNm": "v1.0.0",
      "apiNm": "보유계좌2",
      "apiDomain": "https://tapi.codef.io",
      "apiUri": "/v1/kr/bank/p/account/account-list",
      "apiMeth": "POST",
      "apiDesc": "",
      "apiGrpId": 0,
      "apiAuthCheck": "00000000",
      "descUseYn": "Y",
      "reqStep": "1",
      "timeout": "30000",
      "useYn": "Y",
      "regDtm": "2023-02-13T13:21:54",
      "modDtm": "2023-02-13T13:21:54"
    },
    {
      "portfId": "F0000001",
      "apiId": "A-c41468c3-7223-4fd2-bff1-7096d47d6f12",
      "verOrd": "149",
      "verNm": "v1.0.0",
      "apiNm": "등록여부",
      "apiDomain": "https://tapi.codef.io",
      "apiUri": "/v1/kr/bank/p/user/registration-status",
      "apiMeth": "POST",
      "apiDesc": "",
      "apiGrpId": 0,
      "apiAuthCheck": "00000000",
      "descUseYn": "Y",
      "reqStep": "1",
      "timeout": "30000",
      "useYn": "Y",
      "regDtm": "2023-02-13T13:21:54",
      "modDtm": "2023-02-13T13:21:54"
    },
    {
      "portfId": "F0000001",
      "apiId": "A-207ad36c-ec74-435f-82fa-690a6fc025d0",
      "verOrd": "148",
      "verNm": "v1.0.0",
      "apiNm": "대출 거래내역2",
      "apiDomain": "https://tapi.codef.io",
      "apiUri": "/v1/kr/bank/p/loan/transaction-list",
      "apiMeth": "POST",
      "apiDesc": "",
      "apiGrpId": 0,
      "apiAuthCheck": "00000000",
      "descUseYn": "Y",
      "reqStep": "1",
      "timeout": "30000",
      "useYn": "Y",
      "regDtm": "2023-02-13T13:21:54",
      "modDtm": "2023-02-13T13:21:54"
    },
    {
      "portfId": "F0000001",
      "apiId": "A-ecda222f-7467-4200-8077-03f4b6828338",
      "verOrd": "18",
      "verNm": "v1.0.0",
      "apiNm": "보유계좌1",
      "apiDomain": "https://tapi.codef.io",
      "apiUri": "/v1/kr/bank/p/account/account-list",
      "apiMeth": "POST",
      "apiDesc": "",
      "apiGrpId": 0,
      "apiAuthCheck": "00000000",
      "descUseYn": "Y",
      "reqStep": "1",
      "timeout": "30000",
      "useYn": "Y",
      "regDtm": "2022-12-26T18:04:15",
      "modDtm": "2023-01-16T18:26:23"
    },
    {
      "portfId": "F0000001",
      "apiId": "A-039cebdd-4fda-4131-bcd7-d3f08e6b1a9a",
      "verOrd": "17",
      "verNm": "v1.0.0",
      "apiNm": "등록여부1",
      "apiDomain": "https://tapi.codef.io",
      "apiUri": "/v1/kr/bank/p/user/registration-status",
      "apiMeth": "POST",
      "apiDesc": "",
      "apiGrpId": 0,
      "apiAuthCheck": "00000000",
      "descUseYn": "Y",
      "reqStep": "1",
      "timeout": "30000",
      "useYn": "Y",
      "regDtm": "2022-12-26T18:04:15",
      "modDtm": "2023-02-13T10:36:22"
    },
    {
      "portfId": "F0000001",
      "apiId": "A-8e9401b4-24f6-471a-b73f-ee8f2e4d6a93",
      "verOrd": "16",
      "verNm": "v1.0.0",
      "apiNm": "대출 거래내역1",
      "apiDomain": "https://tapi.codef.io",
      "apiUri": "/v1/kr/bank/p/loan/transaction-list",
      "apiMeth": "POST",
      "apiDesc": "",
      "apiGrpId": 0,
      "apiAuthCheck": "00000000",
      "descUseYn": "Y",
      "reqStep": "1",
      "timeout": "30000",
      "useYn": "Y",
      "regDtm": "2022-12-26T18:04:15",
      "modDtm": "2023-01-16T18:26:23"
    }
  ],
  "pageable": {
    "sort": {
      "sorted": true,
      "unsorted": false,
      "empty": false
    },
    "offset": 0,
    "pageNumber": 1,
    "pageSize": 10,
    "paged": true,
    "unpaged": false
  },
  "last": true,
  "totalElements": 14,
  "totalPages": 2,
  "first": false,
  "sort": {
    "sorted": true,
    "unsorted": false,
    "empty": false
  },
  "number": 1,
  "numberOfElements": 10,
  "size": 10,
  "empty": false
}